name,url
melendez,https://gitlab.com/efrei4272438/gestion-infrastructure-cloud-alberto/
neloke,https://gitlab.com/pierrethill08/tp-vagrant-leo 
GAMINE KHIYATI, https://gitlab.com/Aimangk/tp-cloud/-/blob/main/TP2/TP2_network_boot.md?ref_type=heads
vincent,https://gitlab.com/Calipso29/b2-efrei-cloud-2023-tp1/-/tree/main
bernard,https://gitlab.com/LMqerto/tps/-/tree/main/Cloud2?ref_type=heads
